GENERATOR_SEMNAL_PWM/GENERATOR_SEMNAL_PWM.sim/sim_1/behav/xsim/waves.vcd
$date
   Thu Dec 11 20:54:58 2025
$end
$version
  2022.1
$end
$timescale
  1ps
$end
$scope module tb_top_system $end
$var reg 1 ! clk $end
$var reg 1 " rst_n $end
$var reg 1 # tb_mosi $end
$var wire 1 $ tb_miso $end
$var reg 1 % sclk $end
$var reg 1 & cs_n $end
$var wire 1 ' pwm_out $end
$var reg 8 ( counter_lsb [7:0] $end
$scope module dut $end
$var wire 1 ) clk $end
$var wire 1 * rst_n $end
$var wire 1 + sclk $end
$var wire 1 , cs_n $end
$var wire 1 - miso $end
$var wire 1 $ mosi $end
$var wire 1 ' pwm_out $end
$var wire 1 . byte_sync $end
$var wire 8 / data_in [7:0] $end
$var wire 8 0 data_out [7:0] $end
$var wire 1 1 read $end
$var wire 1 2 write $end
$var wire 6 3 addr [5:0] $end
$var wire 8 4 data_read [7:0] $end
$var wire 8 5 data_write [7:0] $end
$var wire 16 6 counter_val [15:0] $end
$var wire 16 7 period [15:0] $end
$var wire 1 8 en $end
$var wire 1 9 count_reset $end
$var wire 1 : upnotdown $end
$var wire 8 ; prescale [7:0] $end
$var wire 1 < pwm_en $end
$var wire 8 = functions [7:0] $end
$var wire 16 > compare1 [15:0] $end
$var wire 16 ? compare2 [15:0] $end
$scope module i_spi_bridge $end
$var wire 1 ) clk $end
$var wire 1 * rst_n $end
$var wire 1 + sclk $end
$var wire 1 , cs_n $end
$var wire 1 - mosi $end
$var wire 1 $ miso $end
$var wire 1 . byte_sync $end
$var wire 8 / data_in [7:0] $end
$var wire 8 0 data_out [7:0] $end
$var reg 8 @ shift_in [7:0] $end
$var reg 8 A data_buffer [7:0] $end
$var reg 3 B bit_cnt [2:0] $end
$var reg 1 C byte_tgl $end
$var reg 1 D t_s1 $end
$var reg 1 E t_s2 $end
$var reg 8 F shift_out [7:0] $end
$var reg 1 G cs_q $end
$var wire 1 H cs_fall $end
$upscope $end
$scope module i_instr_dcd $end
$var wire 1 ) clk $end
$var wire 1 * rst_n $end
$var wire 1 . byte_sync $end
$var wire 8 / data_in [7:0] $end
$var wire 8 0 data_out [7:0] $end
$var wire 1 1 read $end
$var wire 1 2 write $end
$var wire 6 3 addr [5:0] $end
$var wire 8 4 data_read [7:0] $end
$var wire 8 5 data_write [7:0] $end
$var reg 2 I state [1:0] $end
$var reg 2 J next_state [1:0] $end
$var reg 1 K cmd_is_write $end
$var reg 8 L out_reg [7:0] $end
$var reg 6 M addr_reg [5:0] $end
$var reg 1 N read_reg $end
$var reg 1 O write_reg $end
$var reg 8 P data_write_reg [7:0] $end
$upscope $end
$scope module i_regs $end
$var wire 1 ) clk $end
$var wire 1 * rst_n $end
$var wire 1 1 read $end
$var wire 1 2 write $end
$var wire 6 3 addr [5:0] $end
$var reg 8 Q data_read [7:0] $end
$var wire 8 5 data_write [7:0] $end
$var wire 16 6 counter_val [15:0] $end
$var reg 16 R period [15:0] $end
$var reg 1 S en $end
$var reg 1 T count_reset $end
$var reg 1 U upnotdown $end
$var reg 8 V prescale [7:0] $end
$var reg 1 W pwm_en $end
$var reg 8 X functions [7:0] $end
$var reg 16 Y compare1 [15:0] $end
$var reg 16 Z compare2 [15:0] $end
$upscope $end
$scope module i_counter $end
$var wire 1 ) clk $end
$var wire 1 * rst_n $end
$var wire 16 6 count_val [15:0] $end
$var wire 16 7 period [15:0] $end
$var wire 1 8 en $end
$var wire 1 9 count_reset $end
$var wire 1 : upnotdown $end
$var wire 8 ; prescale [7:0] $end
$var reg 16 [ cnt_r [15:0] $end
$var reg 9 \ ps_cnt [8:0] $end
$var wire 9 ] ps_lim [8:0] $end
$var wire 1 ^ tick $end
$scope function prescale_limit $end
$var reg 9 _ prescale_limit [8:0] $end
$var reg 8 ` ps [7:0] $end
$upscope $end
$upscope $end
$scope module i_pwm_gen $end
$var wire 1 ) clk $end
$var wire 1 * rst_n $end
$var wire 1 < pwm_en $end
$var wire 16 7 period [15:0] $end
$var wire 8 = functions [7:0] $end
$var wire 16 > compare1 [15:0] $end
$var wire 16 ? compare2 [15:0] $end
$var wire 16 6 count_val [15:0] $end
$var wire 1 ' pwm_out $end
$var reg 16 a period_act [15:0] $end
$var reg 16 b c1_act [15:0] $end
$var reg 16 c c2_act [15:0] $end
$var reg 2 d func_act [1:0] $end
$var wire 16 e c1_cl [15:0] $end
$var wire 16 f c2_cl [15:0] $end
$var wire 1 g start_of_cycle $end
$var reg 16 h prev_count_val [15:0] $end
$var wire 1 i counter_stopped $end
$var wire 1 j cfg_update $end
$var wire 1 k aliniat $end
$var wire 1 l dreapta $end
$var wire 1 m interval $end
$var wire 1 n win_left $end
$var wire 1 o win_right $end
$var wire 1 p win_range $end
$var wire 1 q pwm_logic $end
$var wire 1 r pwm_calc $end
$var reg 1 s pwm_q $end
$upscope $end
$upscope $end
$scope task apply_reset $end
$upscope $end
$scope task spi_transfer_byte $end
$var reg 8 t tx [7:0] $end
$var reg 8 u rx [7:0] $end
$var integer 32 v i [31:0] $end
$upscope $end
$scope task spi_write_reg $end
$var reg 6 w addr [5:0] $end
$var reg 8 x data [7:0] $end
$var reg 8 y cmd [7:0] $end
$var reg 8 z dummy [7:0] $end
$upscope $end
$scope task spi_read_reg $end
$var reg 6 { addr [5:0] $end
$var reg 8 | data [7:0] $end
$var reg 8 } cmd [7:0] $end
$var reg 8 ~ rx [7:0] $end
$upscope $end
$scope task check_pwm_duty $end
$var integer 32 !! period_val [31:0] $end
$var integer 32 "! high_per_period [31:0] $end
$var integer 32 #! num_periods [31:0] $end
$var integer 32 $! total_ticks [31:0] $end
$var integer 32 %! high_count [31:0] $end
$var integer 32 &! i [31:0] $end
$var integer 32 '! exp [31:0] $end
$upscope $end
$upscope $end
$enddefinitions $end
#0
$dumpvars
0!
bx !!
0"
bx "!
0#
bx #!
0$
bx $!
0%
bx %!
1&
bx &!
0'
bx '!
bx (
0)
0*
0+
1,
0-
0.
b0 /
b0 0
01
02
b0 3
b0 4
b0 5
b0 6
b0 7
08
09
0:
b0 ;
0<
b0 =
b0 >
b0 ?
b0 @
b0 A
b0 B
0C
0D
0E
b0 F
1G
0H
b0 I
b0 J
0K
b0 L
b0 M
0N
0O
b0 P
b0 Q
b0 R
0S
0T
0U
b0 V
0W
b0 X
b0 Y
b0 Z
b0 [
b0 \
b0 ]
0^
b0 _
b0 `
b0 a
b0 b
b0 c
b0 d
b0 e
b0 f
1g
b1111111111111111 h
0i
1j
1k
0l
0m
0n
1o
0p
0q
0r
0s
bx t
bx u
bx v
bx w
bx x
bx y
bx z
bx {
bx |
bx }
bx ~
$end
#50000
1!
1)
#100000
0!
0)
#150000
1!
1)
#200000
0!
0)
#250000
1!
1)
#300000
0!
0)
#350000
1!
1)
#400000
0!
0)
#450000
1!
1)
#500000
0!
1"
0)
1*
#550000
1!
1)
b0 h
1i
#600000
0!
0)
#650000
1!
1)
#700000
0!
0)
#750000
1!
1)
b0 w
b111 x
b11000000 y
#800000
0!
1#
0&
0)
0,
1-
1H
b11000000 t
b0 u
b111 v
#850000
1!
1%
1)
1+
b1 @
b1 B
0G
0H
#900000
0!
0%
0)
0+
b110 v
#950000
1!
1%
1)
1+
b11 @
b10 B
#1000000
0!
0#
0%
0)
0+
0-
b101 v
#1050000
1!
1%
1)
1+
b110 @
b11 B
#1100000
0!
0%
0)
0+
b100 v
#1150000
1!
1%
1)
1+
b1100 @
b100 B
#1200000
0!
0%
0)
0+
b11 v
#1250000
1!
1%
1)
1+
b11000 @
b101 B
#1300000
0!
0%
0)
0+
b10 v
#1350000
1!
1%
1)
1+
b110000 @
b110 B
#1400000
0!
0%
0)
0+
b1 v
#1450000
1!
1%
1)
1+
b1100000 @
b111 B
#1500000
0!
0%
0)
0+
b0 v
#1550000
1!
1%
1)
1+
b11000000 /
b11000000 @
b11000000 A
b0 B
1C
#1600000
0!
0%
0)
0+
b111 t
b111 v
b0 z
#1650000
1!
1%
1)
1+
1.
b10000000 @
b1 B
1D
b1 J
#1700000
0!
0%
0)
0+
b110 v
#1750000
1!
1%
1)
1+
0.
11
b0 @
b10 B
1E
b1 I
1K
1N
#1800000
0!
0%
0)
0+
b101 v
#1850000
1!
1%
1)
1+
01
b11 B
0N
#1900000
0!
0%
0)
0+
b100 v
#1950000
1!
1%
1)
1+
b100 B
#2000000
0!
0%
0)
0+
b11 v
#2050000
1!
1%
1)
1+
b101 B
#2100000
0!
1#
0%
0)
0+
1-
b10 v
#2150000
1!
1%
1)
1+
b1 @
b110 B
#2200000
0!
0%
0)
0+
b1 v
#2250000
1!
1%
1)
1+
b11 @
b111 B
#2300000
0!
0%
0)
0+
b0 v
#2350000
1!
1%
1)
1+
b111 /
b111 @
b111 A
b0 B
0C
#2400000
0!
0%
0)
0+
b11111111111111111111111111111111 v
#2450000
1!
1&
1)
1,
1.
0D
b0 J
#2500000
0!
0)
#2550000
1!
1)
0.
12
b111 5
0E
b0 I
1O
b111 P
#2600000
0!
0)
#2650000
1!
1)
02
b111 4
b111 7
0O
b111 Q
b111 R
b1010 w
b0 x
b11001010 y
#2700000
0!
0&
0)
0,
b11001010 t
b111 v
#2750000
1!
1%
1)
1+
b1111 @
b1 B
b111 a
#2800000
0!
0%
0)
0+
b110 v
#2850000
1!
1%
1)
1+
b11111 @
b10 B
#2900000
0!
0#
0%
0)
0+
0-
b101 v
#2950000
1!
1%
1)
1+
b111110 @
b11 B
#3000000
0!
0%
0)
0+
b100 v
#3050000
1!
1%
1)
1+
b1111100 @
b100 B
#3100000
0!
1#
0%
0)
0+
1-
b11 v
#3150000
1!
1%
1)
1+
b11111001 @
b101 B
#3200000
0!
0#
0%
0)
0+
0-
b10 v
#3250000
1!
1%
1)
1+
b11110010 @
b110 B
#3300000
0!
1#
0%
0)
0+
1-
b1 v
#3350000
1!
1%
1)
1+
b11100101 @
b111 B
#3400000
0!
0#
0%
0)
0+
0-
b0 v
#3450000
1!
1%
1)
1+
b11001010 /
b11001010 @
b11001010 A
b0 B
1C
#3500000
0!
0%
0)
0+
b0 t
b111 v
#3550000
1!
1%
1)
1+
1.
b10010100 @
b1 B
1D
b1 J
#3600000
0!
0%
0)
0+
b110 v
#3650000
1!
1%
1)
1+
0.
b1010 3
b0 4
b101000 @
b10 B
1E
b1 I
b1010 M
b0 Q
#3700000
0!
0%
0)
0+
b101 v
#3750000
1!
1%
1)
1+
b1010000 @
b11 B
#3800000
0!
0%
0)
0+
b100 v
#3850000
1!
1%
1)
1+
b10100000 @
b100 B
#3900000
0!
0%
0)
0+
b11 v
#3950000
1!
1%
1)
1+
b1000000 @
b101 B
#4000000
0!
0%
0)
0+
b10 v
#4050000
1!
1%
1)
1+
b10000000 @
b110 B
#4100000
0!
0%
0)
0+
b1 v
#4150000
1!
1%
1)
1+
b0 @
b111 B
#4200000
0!
0%
0)
0+
b0 v
#4250000
1!
1%
1)
1+
b0 /
b0 A
b0 B
0C
#4300000
0!
0%
0)
0+
b11111111111111111111111111111111 v
#4350000
1!
1&
1)
1,
1.
0D
b0 J
#4400000
0!
0)
#4450000
1!
1)
0.
12
b0 5
0E
b0 I
1O
b0 P
#4500000
0!
0)
#4550000
1!
1)
02
0O
b11 w
b11 x
b11000011 y
#4600000
0!
1#
0&
0)
0,
1-
b11000011 t
b111 v
#4650000
1!
1%
1)
1+
b1 @
b1 B
#4700000
0!
0%
0)
0+
b110 v
#4750000
1!
1%
1)
1+
b11 @
b10 B
#4800000
0!
0#
0%
0)
0+
0-
b101 v
#4850000
1!
1%
1)
1+
b110 @
b11 B
#4900000
0!
0%
0)
0+
b100 v
#4950000
1!
1%
1)
1+
b1100 @
b100 B
#5000000
0!
0%
0)
0+
b11 v
#5050000
1!
1%
1)
1+
b11000 @
b101 B
#5100000
0!
0%
0)
0+
b10 v
#5150000
1!
1%
1)
1+
b110000 @
b110 B
#5200000
0!
1#
0%
0)
0+
1-
b1 v
#5250000
1!
1%
1)
1+
b1100001 @
b111 B
#5300000
0!
0%
0)
0+
b0 v
#5350000
1!
1%
1)
1+
b11000011 /
b11000011 @
b11000011 A
b0 B
1C
#5400000
0!
0#
0%
0)
0+
0-
b11 t
b111 v
#5450000
1!
1%
1)
1+
1.
b10000110 @
b1 B
1D
b1 J
#5500000
0!
0%
0)
0+
b110 v
#5550000
1!
1%
1)
1+
0.
b11 3
b1100 @
b10 B
1E
b1 I
b11 M
b0 Q
#5600000
0!
0%
0)
0+
b101 v
#5650000
1!
1%
1)
1+
b11000 @
b11 B
#5700000
0!
0%
0)
0+
b100 v
#5750000
1!
1%
1)
1+
b110000 @
b100 B
#5800000
0!
0%
0)
0+
b11 v
#5850000
1!
1%
1)
1+
b1100000 @
b101 B
#5900000
0!
0%
0)
0+
b10 v
#5950000
1!
1%
1)
1+
b11000000 @
b110 B
#6000000
0!
1#
0%
0)
0+
1-
b1 v
#6050000
1!
1%
1)
1+
b10000001 @
b111 B
#6100000
0!
0%
0)
0+
b0 v
#6150000
1!
1%
1)
1+
b11 /
b11 @
b11 A
b0 B
0C
#6200000
0!
0%
0)
0+
b11111111111111111111111111111111 v
#6250000
1!
1&
1)
1,
1.
0D
b0 J
#6300000
0!
0)
#6350000
1!
1)
0.
12
b11 5
0E
b0 I
1O
b11 P
#6400000
0!
0)
#6450000
1!
1)
02
b11 4
b11 >
0O
b11 Q
b11 Y
b11 e
b10 w
b1 x
b11000010 y
#6500000
0!
0&
0)
0,
b11000010 t
b111 v
#6550000
1!
1%
1)
1+
b111 @
b1 B
b11 b
1n
0o
0p
1q
1r
#6600000
0!
0%
0)
0+
b110 v
#6650000
1!
1%
1)
1+
b1111 @
b10 B
#6700000
0!
0#
0%
0)
0+
0-
b101 v
#6750000
1!
1%
1)
1+
b11110 @
b11 B
#6800000
0!
0%
0)
0+
b100 v
#6850000
1!
1%
1)
1+
b111100 @
b100 B
#6900000
0!
0%
0)
0+
b11 v
#6950000
1!
1%
1)
1+
b1111000 @
b101 B
#7000000
0!
0%
0)
0+
b10 v
#7050000
1!
1%
1)
1+
b11110000 @
b110 B
#7100000
0!
1#
0%
0)
0+
1-
b1 v
#7150000
1!
1%
1)
1+
b11100001 @
b111 B
#7200000
0!
0#
0%
0)
0+
0-
b0 v
#7250000
1!
1%
1)
1+
b11000010 /
b11000010 @
b11000010 A
b0 B
1C
#7300000
0!
0%
0)
0+
b1 t
b111 v
#7350000
1!
1%
1)
1+
1.
b10000100 @
b1 B
1D
b1 J
#7400000
0!
0%
0)
0+
b110 v
#7450000
1!
1%
1)
1+
0.
b10 3
b0 4
b1000 @
b10 B
1E
b1 I
b10 M
b0 Q
#7500000
0!
0%
0)
0+
b101 v
#7550000
1!
1%
1)
1+
b10000 @
b11 B
#7600000
0!
0%
0)
0+
b100 v
#7650000
1!
1%
1)
1+
b100000 @
b100 B
#7700000
0!
0%
0)
0+
b11 v
#7750000
1!
1%
1)
1+
b1000000 @
b101 B
#7800000
0!
0%
0)
0+
b10 v
#7850000
1!
1%
1)
1+
b10000000 @
b110 B
#7900000
0!
0%
0)
0+
b1 v
#7950000
1!
1%
1)
1+
b0 @
b111 B
#8000000
0!
1#
0%
0)
0+
1-
b0 v
#8050000
1!
1%
1)
1+
b1 /
b1 @
b1 A
b0 B
0C
#8100000
0!
0%
0)
0+
b11111111111111111111111111111111 v
#8150000
1!
1&
1)
1,
1.
0D
b0 J
#8200000
0!
0)
#8250000
1!
1)
0.
12
b1 5
0E
b0 I
1O
b1 P
#8300000
0!
0)
#8350000
1!
1)
02
b1 4
18
0O
b1 Q
1S
1^
b1100 w
b11001100 y
#8400000
0!
0&
0)
0,
b11001100 t
b111 v
#8450000
1!
1%
1)
1+
b111 6
b11 @
b1 B
b1 Q
b111 [
0g
0i
0n
1o
0p
0q
0r
#8500000
0!
0%
0)
0+
b110 v
#8550000
1!
1%
1)
1+
b110 6
b111 @
b10 B
b1 Q
b110 [
0g
b111 h
0i
0n
1o
0p
#8600000
0!
0#
0%
0)
0+
0-
b101 v
#8650000
1!
1%
1)
1+
b101 6
b1110 @
b11 B
b1 Q
b101 [
0g
b110 h
0i
0n
1o
0p
#8700000
0!
0%
0)
0+
b100 v
#8750000
1!
1%
1)
1+
b100 6
b11100 @
b100 B
b1 Q
b100 [
0g
b101 h
0i
0n
1o
0p
#8800000
0!
1#
0%
0)
0+
1-
b11 v
#8850000
1!
1%
1)
1+
b11 6
b111001 @
b101 B
b1 Q
b11 [
0g
b100 h
0i
1n
1o
0p
1q
1r
#8900000
0!
0%
0)
0+
b10 v
#8950000
1!
1%
1)
1+
b10 6
b1110011 @
b110 B
b1 Q
b10 [
0g
b11 h
0i
1n
0o
0p
1q
#9000000
0!
0#
0%
0)
0+
0-
b1 v
#9050000
1!
1%
1)
1+
b1 6
b11100110 @
b111 B
b1 Q
b1 [
0g
b10 h
0i
1n
0o
0p
#9100000
0!
0%
0)
0+
b0 v
#9150000
1!
1%
1)
1+
b11001100 /
b0 6
b11001100 @
b11001100 A
b0 B
1C
b1 Q
b0 [
1g
b1 h
0i
1n
0o
0p
#9200000
0!
0%
0)
0+
b1 t
b111 v
#9250000
1!
1%
1)
1+
1.
b111 6
b10011000 @
b1 B
1D
b1 J
b1 Q
b111 [
0g
b0 h
0i
0n
1o
0p
0q
0r
#9300000
0!
0%
0)
0+
b110 v
#9350000
1!
1%
1)
1+
0.
b1100 3
b0 4
b110 6
b110000 @
b10 B
1E
b1 I
b1100 M
b0 Q
b110 [
0g
b111 h
0i
0n
1o
0p
#9400000
0!
0%
0)
0+
b101 v
#9450000
1!
1%
1)
1+
b101 6
b1100000 @
b11 B
b0 Q
b101 [
0g
b110 h
0i
0n
1o
0p
#9500000
0!
0%
0)
0+
b100 v
#9550000
1!
1%
1)
1+
b100 6
b11000000 @
b100 B
b0 Q
b100 [
0g
b101 h
0i
0n
1o
0p
#9600000
0!
0%
0)
0+
b11 v
#9650000
1!
1%
1)
1+
b11 6
b10000000 @
b101 B
b0 Q
b11 [
0g
b100 h
0i
1n
1o
0p
1q
1r
#9700000
0!
0%
0)
0+
b10 v
#9750000
1!
1%
1)
1+
b10 6
b0 @
b110 B
b0 Q
b10 [
0g
b11 h
0i
1n
0o
0p
1q
#9800000
0!
0%
0)
0+
b1 v
#9850000
1!
1%
1)
1+
b1 6
b111 B
b0 Q
b1 [
0g
b10 h
0i
1n
0o
0p
#9900000
0!
1#
0%
0)
0+
1-
b0 v
#9950000
1!
1%
1)
1+
b1 /
b0 6
b1 @
b1 A
b0 B
0C
b0 Q
b0 [
1g
b1 h
0i
1n
0o
0p
#10000000
0!
0%
0)
0+
b11111111111111111111111111111111 v
#10050000
1!
1&
1)
1,
1.
b111 6
0D
b0 J
b0 Q
b111 [
0g
b0 h
0i
0n
1o
0p
0q
0r
#10100000
0!
0)
#10150000
1!
1)
0.
12
b110 6
0E
b0 I
1O
b0 Q
b110 [
0g
b111 h
0i
0n
1o
0p
#10200000
0!
0)
#10250000
1!
1)
02
b1 4
b101 6
1<
0O
b1 Q
1W
b101 [
0g
b110 h
0i
0j
0n
1o
0p
b1101 w
b0 x
b11001101 y
#10300000
0!
0&
0)
0,
b11001101 t
b111 v
#10350000
1!
1%
1)
1+
b100 6
b11 @
b1 B
b1 Q
b100 [
0g
b101 h
0i
0n
1o
0p
#10400000
0!
0%
0)
0+
b110 v
#10450000
1!
1%
1)
1+
b11 6
b111 @
b10 B
b1 Q
b11 [
0g
b100 h
0i
1n
1o
0p
1q
1r
#10500000
0!
0#
0%
0)
0+
0-
b101 v
#10550000
1!
1%
1'
1)
1+
b10 6
b1110 @
b11 B
b1 Q
b10 [
0g
b11 h
0i
1n
0o
0p
1q
1s
#10600000
0!
0%
0)
0+
b100 v
#10650000
1!
1%
1)
1+
b1 6
b11100 @
b100 B
b1 Q
b1 [
0g
b10 h
0i
1n
0o
0p
#10700000
0!
1#
0%
0)
0+
1-
b11 v
#10750000
1!
1%
1)
1+
b0 6
b111001 @
b101 B
b1 Q
b0 [
1g
b1 h
0i
1j
1n
0o
0p
#10800000
0!
0%
0)
0+
b10 v
#10850000
1!
1%
1)
1+
b111 6
b1110011 @
b110 B
b1 Q
b111 [
0g
b0 h
0i
0j
0n
1o
0p
0q
0r
#10900000
0!
0#
0%
0)
0+
0-
b1 v
#10950000
1!
1%
0'
1)
1+
b110 6
b11100110 @
b111 B
b1 Q
b110 [
0g
b111 h
0i
0n
1o
0p
0s
#11000000
0!
1#
0%
0)
0+
1-
b0 v
#11050000
1!
1%
1)
1+
b11001101 /
b101 6
b11001101 @
b11001101 A
b0 B
1C
b1 Q
b101 [
0g
b110 h
0i
0n
1o
0p
#11100000
0!
0#
0%
0)
0+
0-
b0 t
b111 v
#11150000
1!
1%
1)
1+
1.
b100 6
b10011010 @
b1 B
1D
b1 J
b1 Q
b100 [
0g
b101 h
0i
0n
1o
0p
#11200000
0!
0%
0)
0+
b110 v
#11250000
1!
1%
1)
1+
0.
b1101 3
b0 4
b11 6
b110100 @
b10 B
1E
b1 I
b1101 M
b0 Q
b11 [
0g
b100 h
0i
1n
1o
0p
1q
1r
#11300000
0!
0%
0)
0+
b101 v
#11350000
1!
1%
1'
1)
1+
b10 6
b1101000 @
b11 B
b0 Q
b10 [
0g
b11 h
0i
1n
0o
0p
1q
1s
#11400000
0!
0%
0)
0+
b100 v
#11450000
1!
1%
1)
1+
b1 6
b11010000 @
b100 B
b0 Q
b1 [
0g
b10 h
0i
1n
0o
0p
#11500000
0!
0%
0)
0+
b11 v
#11550000
1!
1%
1)
1+
b0 6
b10100000 @
b101 B
b0 Q
b0 [
1g
b1 h
0i
1j
1n
0o
0p
#11600000
0!
0%
0)
0+
b10 v
#11650000
1!
1%
1)
1+
b111 6
b1000000 @
b110 B
b0 Q
b111 [
0g
b0 h
0i
0j
0n
1o
0p
0q
0r
#11700000
0!
0%
0)
0+
b1 v
#11750000
1!
1%
0'
1)
1+
b110 6
b10000000 @
b111 B
b0 Q
b110 [
0g
b111 h
0i
0n
1o
0p
0s
#11800000
0!
0%
0)
0+
b0 v
#11850000
1!
1%
1)
1+
b0 /
b101 6
b0 @
b0 A
b0 B
0C
b0 Q
b101 [
0g
b110 h
0i
0n
1o
0p
#11900000
0!
0%
0)
0+
b11111111111111111111111111111111 v
#11950000
1!
1&
1)
1,
1.
b100 6
0D
b0 J
b0 Q
b100 [
0g
b101 h
0i
0n
1o
0p
#12000000
0!
0)
#12050000
1!
1)
0.
12
b0 5
b11 6
0E
b0 I
1O
b0 P
b0 Q
b11 [
0g
b100 h
0i
1n
1o
0p
1q
1r
#12100000
0!
0)
#12150000
1!
1'
1)
02
b10 6
0O
b0 Q
b10 [
0g
b11 h
0i
1n
0o
0p
1q
1s
b111 w
b1 x
b11000111 y
#12200000
0!
1#
0&
0)
0,
1-
b11000111 t
b111 v
#12250000
1!
1%
1)
1+
b1 6
b1 @
b1 B
b0 Q
b1 [
0g
b10 h
0i
1n
0o
0p
#12300000
0!
0%
0)
0+
b110 v
#12350000
1!
1%
1)
1+
b0 6
b11 @
b10 B
b0 Q
b0 [
1g
b1 h
0i
1j
1n
0o
0p
#12400000
0!
0#
0%
0)
0+
0-
b101 v
#12450000
1!
1%
1)
1+
b111 6
b110 @
b11 B
b0 Q
b111 [
0g
b0 h
0i
0j
0n
1o
0p
0q
0r
#12500000
0!
0%
0)
0+
b100 v
#12550000
1!
1%
0'
1)
1+
b110 6
b1100 @
b100 B
b0 Q
b110 [
0g
b111 h
0i
0n
1o
0p
0s
#12600000
0!
0%
0)
0+
b11 v
#12650000
1!
1%
1)
1+
b101 6
b11000 @
b101 B
b0 Q
b101 [
0g
b110 h
0i
0n
1o
0p
#12700000
0!
1#
0%
0)
0+
1-
b10 v
#12750000
1!
1%
1)
1+
b100 6
b110001 @
b110 B
b0 Q
b100 [
0g
b101 h
0i
0n
1o
0p
#12800000
0!
0%
0)
0+
b1 v
#12850000
1!
1%
1)
1+
b11 6
b1100011 @
b111 B
b0 Q
b11 [
0g
b100 h
0i
1n
1o
0p
1q
1r
#12900000
0!
0%
0)
0+
b0 v
#12950000
1!
1%
1'
1)
1+
b11000111 /
b10 6
b11000111 @
b11000111 A
b0 B
1C
b0 Q
b10 [
0g
b11 h
0i
1n
0o
0p
1q
1s
#13000000
0!
0#
0%
0)
0+
0-
b1 t
b111 v
#13050000
1!
1%
1)
1+
1.
b1 6
b10001110 @
b1 B
1D
b1 J
b0 Q
b1 [
0g
b10 h
0i
1n
0o
0p
#13100000
0!
0%
0)
0+
b110 v
#13150000
1!
1%
1)
1+
0.
b111 3
b0 6
b11100 @
b10 B
1E
b1 I
b111 M
b0 Q
b0 [
1g
b1 h
0i
1j
1n
0o
0p
#13200000
0!
0%
0)
0+
b101 v
#13250000
1!
1%
1)
1+
b111 6
b111000 @
b11 B
b0 Q
b111 [
0g
b0 h
0i
0j
0n
1o
0p
0q
0r
#13300000
0!
0%
0)
0+
b100 v
#13350000
1!
1%
0'
1)
1+
b110 6
b1110000 @
b100 B
b0 Q
b110 [
0g
b111 h
0i
0n
1o
0p
0s
#13400000
0!
0%
0)
0+
b11 v
#13450000
1!
1%
1)
1+
b101 6
b11100000 @
b101 B
b0 Q
b101 [
0g
b110 h
0i
0n
1o
0p
#13500000
0!
0%
0)
0+
b10 v
#13550000
1!
1%
1)
1+
b100 6
b11000000 @
b110 B
b0 Q
b100 [
0g
b101 h
0i
0n
1o
0p
#13600000
0!
0%
0)
0+
b1 v
#13650000
1!
1%
1)
1+
b11 6
b10000000 @
b111 B
b0 Q
b11 [
0g
b100 h
0i
1n
1o
0p
1q
1r
#13700000
0!
1#
0%
0)
0+
1-
b0 v
#13750000
1!
1%
1'
1)
1+
b1 /
b10 6
b1 @
b1 A
b0 B
0C
b0 Q
b10 [
0g
b11 h
0i
1n
0o
0p
1q
1s
#13800000
0!
0%
0)
0+
b11111111111111111111111111111111 v
#13850000
1!
1&
1)
1,
1.
b1 6
0D
b0 J
b0 Q
b1 [
0g
b10 h
0i
1n
0o
0p
#13900000
0!
0)
#13950000
1!
1)
0.
12
b1 5
b0 6
0E
b0 I
1O
b1 P
b0 Q
b0 [
1g
b1 h
0i
1j
1n
0o
0p
#14000000
0!
0)
#14050000
1!
1)
02
b111 6
19
0O
b0 Q
1T
b111 [
0g
b0 h
0i
0j
0n
1o
0p
0q
0r
b0 x
#14100000
0!
0&
0)
0,
b11000111 t
b111 v
#14150000
1!
1%
0'
1)
1+
b0 6
09
b11 @
b1 B
b0 Q
0T
b0 [
1g
b111 h
0i
1j
1n
0o
0p
1q
1r
0s
#14200000
0!
0%
0)
0+
b110 v
#14250000
1!
1%
1'
1)
1+
b111 6
b111 @
b10 B
b0 Q
b111 [
0g
b0 h
0i
0j
0n
1o
0p
0q
0r
1s
#14300000
0!
0#
0%
0)
0+
0-
b101 v
#14350000
1!
1%
0'
1)
1+
b110 6
b1110 @
b11 B
b0 Q
b110 [
0g
b111 h
0i
0n
1o
0p
0s
#14400000
0!
0%
0)
0+
b100 v
#14450000
1!
1%
1)
1+
b101 6
b11100 @
b100 B
b0 Q
b101 [
0g
b110 h
0i
0n
1o
0p
#14500000
0!
0%
0)
0+
b11 v
#14550000
1!
1%
1)
1+
b100 6
b111000 @
b101 B
b0 Q
b100 [
0g
b101 h
0i
0n
1o
0p
#14600000
0!
1#
0%
0)
0+
1-
b10 v
#14650000
1!
1%
1)
1+
b11 6
b1110001 @
b110 B
b0 Q
b11 [
0g
b100 h
0i
1n
1o
0p
1q
1r
#14700000
0!
0%
0)
0+
b1 v
#14750000
1!
1%
1'
1)
1+
b10 6
b11100011 @
b111 B
b0 Q
b10 [
0g
b11 h
0i
1n
0o
0p
1q
1s
#14800000
0!
0%
0)
0+
b0 v
#14850000
1!
1%
1)
1+
b11000111 /
b1 6
b11000111 @
b11000111 A
b0 B
1C
b0 Q
b1 [
0g
b10 h
0i
1n
0o
0p
#14900000
0!
0#
0%
0)
0+
0-
b0 t
b111 v
#14950000
1!
1%
1)
1+
1.
b0 6
b10001110 @
b1 B
1D
b1 J
b0 Q
b0 [
1g
b1 h
0i
1j
1n
0o
0p
#15000000
0!
0%
0)
0+
b110 v
#15050000
1!
1%
1)
1+
0.
b111 6
b11100 @
b10 B
1E
b1 I
b0 Q
b111 [
0g
b0 h
0i
0j
0n
1o
0p
0q
0r
#15100000
0!
0%
0)
0+
b101 v
#15150000
1!
1%
0'
1)
1+
b110 6
b111000 @
b11 B
b0 Q
b110 [
0g
b111 h
0i
0n
1o
0p
0s
#15200000
0!
0%
0)
0+
b100 v
#15250000
1!
1%
1)
1+
b101 6
b1110000 @
b100 B
b0 Q
b101 [
0g
b110 h
0i
0n
1o
0p
#15300000
0!
0%
0)
0+
b11 v
#15350000
1!
1%
1)
1+
b100 6
b11100000 @
b101 B
b0 Q
b100 [
0g
b101 h
0i
0n
1o
0p
#15400000
0!
0%
0)
0+
b10 v
#15450000
1!
1%
1)
1+
b11 6
b11000000 @
b110 B
b0 Q
b11 [
0g
b100 h
0i
1n
1o
0p
1q
1r
#15500000
0!
0%
0)
0+
b1 v
#15550000
1!
1%
1'
1)
1+
b10 6
b10000000 @
b111 B
b0 Q
b10 [
0g
b11 h
0i
1n
0o
0p
1q
1s
#15600000
0!
0%
0)
0+
b0 v
#15650000
1!
1%
1)
1+
b0 /
b1 6
b0 @
b0 A
b0 B
0C
b0 Q
b1 [
0g
b10 h
0i
1n
0o
0p
#15700000
0!
0%
0)
0+
b11111111111111111111111111111111 v
#15750000
1!
1&
1)
1,
1.
b0 6
0D
b0 J
b0 Q
b0 [
1g
b1 h
0i
1j
1n
0o
0p
#15800000
0!
0)
